rtl/loas_perfect.vcd
$date
	Mon Jan 19 00:13:25 2026
$end
$version
	Icarus Verilog
$end
$timescale
	1ps
$end
$scope module tb_loas_perfect $end
$var wire 32 ! window_count [31:0] $end
$var wire 32 " total_spikes [31:0] $end
$var wire 1 # spike_out_valid $end
$var wire 2 $ spike_out_timestep [1:0] $end
$var wire 2 % spike_out_neuron_id [1:0] $end
$var wire 32 & cycle_count [31:0] $end
$var reg 1 ' clk $end
$var reg 16 ( neuron_threshold [15:0] $end
$var reg 1 ) rst_n $end
$var reg 1 * spike_in_valid $end
$var reg 16 + spike_in_vec [15:0] $end
$var integer 32 , i [31:0] $end
$scope module dut $end
$var wire 1 - cache_ready $end
$var wire 1 ' clk $end
$var wire 32 . cycle_count [31:0] $end
$var wire 1 / fiber_ready $end
$var wire 16 0 neuron_threshold [15:0] $end
$var wire 1 ) rst_n $end
$var wire 1 * spike_in_valid $end
$var wire 16 1 spike_in_vec [15:0] $end
$var wire 32 2 total_spikes [31:0] $end
$var wire 1 3 window_start $end
$var wire 1 4 window_end $end
$var wire 32 5 window_count [31:0] $end
$var wire 3 6 win_cnt [2:0] $end
$var wire 4 7 tppe_valid [3:0] $end
$var wire 1 # spike_out_valid $end
$var wire 2 8 spike_out_timestep [1:0] $end
$var wire 2 9 spike_out_neuron_id [1:0] $end
$var wire 4 : neuron_window_start [3:0] $end
$var wire 4 ; neuron_window_end [3:0] $end
$var wire 4 < neuron_match_valid [3:0] $end
$var wire 4 = lif_spikes [3:0] $end
$var wire 1 > lif_spike_valid $end
$var wire 2 ? lif_neuron_sel [1:0] $end
$var wire 2 @ lif_neuron_id [1:0] $end
$var wire 1 A lif_input_valid $end
$var wire 8 B ij_off_b [7:0] $end
$var wire 8 C ij_off_a [7:0] $end
$var wire 8 D ij_match_pos [7:0] $end
$var wire 1 E ij_match $end
$var wire 1 F ij_done $end
$var wire 1 G fiber_valid $end
$var wire 64 H fiber_packed [63:0] $end
$var wire 16 I fiber_bitmask [15:0] $end
$var wire 1 J cache_valid $end
$var wire 128 K cache_data_flat [127:0] $end
$var wire 8 L cache_bitmask [7:0] $end
$var wire 1 M actual_window_end $end
$var wire 2 N actual_neuron [1:0] $end
$var reg 8 O cache_addr [7:0] $end
$var reg 2 P current_neuron [1:0] $end
$var reg 32 Q cycles [31:0] $end
$var reg 2 R neuron_counter [1:0] $end
$var reg 2 S pending_neuron [1:0] $end
$var reg 32 T spikes [31:0] $end
$var reg 1 U window_end_pending $end
$scope begin NEURON_SIGNALS[0] $end
$upscope $end
$scope begin NEURON_SIGNALS[1] $end
$upscope $end
$scope begin NEURON_SIGNALS[2] $end
$upscope $end
$scope begin NEURON_SIGNALS[3] $end
$upscope $end
$scope begin TPPE_ARRAY[0] $end
$scope module u_tppe $end
$var wire 1 ' clk $end
$var wire 3 V match_pos [2:0] $end
$var wire 1 W match_valid $end
$var wire 1 ) rst_n $end
$var wire 8 X spike_bitmask [7:0] $end
$var wire 32 Y spike_fiber [31:0] $end
$var wire 16 Z weight_data [15:0] $end
$var wire 1 [ window_end $end
$var wire 1 \ window_start $end
$var wire 4 ] actual_spikes [3:0] $end
$var reg 16 ^ pseudo_acc [15:0] $end
$var reg 64 _ score_out_flat [63:0] $end
$var reg 1 ` score_valid $end
$var integer 32 a t [31:0] $end
$upscope $end
$upscope $end
$scope begin TPPE_ARRAY[1] $end
$scope module u_tppe $end
$var wire 1 ' clk $end
$var wire 3 b match_pos [2:0] $end
$var wire 1 c match_valid $end
$var wire 1 ) rst_n $end
$var wire 8 d spike_bitmask [7:0] $end
$var wire 32 e spike_fiber [31:0] $end
$var wire 16 f weight_data [15:0] $end
$var wire 1 g window_end $end
$var wire 1 h window_start $end
$var wire 4 i actual_spikes [3:0] $end
$var reg 16 j pseudo_acc [15:0] $end
$var reg 64 k score_out_flat [63:0] $end
$var reg 1 l score_valid $end
$var integer 32 m t [31:0] $end
$upscope $end
$upscope $end
$scope begin TPPE_ARRAY[2] $end
$scope module u_tppe $end
$var wire 1 ' clk $end
$var wire 3 n match_pos [2:0] $end
$var wire 1 o match_valid $end
$var wire 1 ) rst_n $end
$var wire 8 p spike_bitmask [7:0] $end
$var wire 32 q spike_fiber [31:0] $end
$var wire 16 r weight_data [15:0] $end
$var wire 1 s window_end $end
$var wire 1 t window_start $end
$var wire 4 u actual_spikes [3:0] $end
$var reg 16 v pseudo_acc [15:0] $end
$var reg 64 w score_out_flat [63:0] $end
$var reg 1 x score_valid $end
$var integer 32 y t [31:0] $end
$upscope $end
$upscope $end
$scope begin TPPE_ARRAY[3] $end
$scope module u_tppe $end
$var wire 1 ' clk $end
$var wire 3 z match_pos [2:0] $end
$var wire 1 { match_valid $end
$var wire 1 ) rst_n $end
$var wire 8 | spike_bitmask [7:0] $end
$var wire 32 } spike_fiber [31:0] $end
$var wire 16 ~ weight_data [15:0] $end
$var wire 1 !" window_end $end
$var wire 1 "" window_start $end
$var wire 4 #" actual_spikes [3:0] $end
$var reg 16 $" pseudo_acc [15:0] $end
$var reg 64 %" score_out_flat [63:0] $end
$var reg 1 &" score_valid $end
$var integer 32 '" t [31:0] $end
$upscope $end
$upscope $end
$scope module u_cache $end
$var wire 1 ' clk $end
$var wire 8 (" req_addr [7:0] $end
$var wire 1 - resp_ready $end
$var wire 1 ) rst_n $end
$var wire 1 G req_valid $end
$var reg 1 )" req_ready $end
$var reg 8 *" resp_bitmask [7:0] $end
$var reg 128 +" resp_data_flat [127:0] $end
$var reg 1 J resp_valid $end
$var integer 32 ," i [31:0] $end
$var integer 32 -" j [31:0] $end
$upscope $end
$scope module u_compress $end
$var wire 1 ' clk $end
$var wire 1 / fiber_ready $end
$var wire 1 ) rst_n $end
$var wire 1 * spike_valid $end
$var wire 16 ." spike_vec [15:0] $end
$var reg 16 /" fiber_bitmask [15:0] $end
$var reg 64 0" fiber_packed_data [63:0] $end
$var reg 1 G fiber_valid $end
$var reg 3 1" t_cnt [2:0] $end
$var integer 32 2" i [31:0] $end
$upscope $end
$scope module u_join $end
$var wire 8 3" bm_a [7:0] $end
$var wire 8 4" bm_b [7:0] $end
$var wire 1 ' clk $end
$var wire 1 ) rst_n $end
$var wire 1 J start $end
$var wire 64 5" prefix_b_flat [63:0] $end
$var wire 1 6" prefix_a_ready $end
$var wire 64 7" prefix_a_flat [63:0] $end
$var reg 8 8" and_result [7:0] $end
$var reg 1 F done $end
$var reg 4 9" fifo_cnt [3:0] $end
$var reg 3 :" fifo_rd [2:0] $end
$var reg 3 ;" fifo_wr [2:0] $end
$var reg 8 <" match_pos [7:0] $end
$var reg 1 E match_valid $end
$var reg 8 =" offset_a [7:0] $end
$var reg 8 >" offset_b [7:0] $end
$var reg 8 ?" scan_idx [7:0] $end
$var reg 2 @" state [1:0] $end
$scope module u_fast $end
$var wire 8 A" bitmask [7:0] $end
$var wire 64 B" prefix_flat [63:0] $end
$scope begin FLATTEN[0] $end
$upscope $end
$scope begin FLATTEN[1] $end
$upscope $end
$scope begin FLATTEN[2] $end
$upscope $end
$scope begin FLATTEN[3] $end
$upscope $end
$scope begin FLATTEN[4] $end
$upscope $end
$scope begin FLATTEN[5] $end
$upscope $end
$scope begin FLATTEN[6] $end
$upscope $end
$scope begin FLATTEN[7] $end
$upscope $end
$scope begin PREFIX_GEN[1] $end
$upscope $end
$scope begin PREFIX_GEN[2] $end
$upscope $end
$scope begin PREFIX_GEN[3] $end
$upscope $end
$scope begin PREFIX_GEN[4] $end
$upscope $end
$scope begin PREFIX_GEN[5] $end
$upscope $end
$scope begin PREFIX_GEN[6] $end
$upscope $end
$scope begin PREFIX_GEN[7] $end
$upscope $end
$upscope $end
$scope module u_laggy $end
$var wire 8 C" bitmask [7:0] $end
$var wire 1 ' clk $end
$var wire 1 ) rst_n $end
$var wire 1 J start $end
$var reg 8 D" bm_captured [7:0] $end
$var reg 2 E" cycle_cnt [1:0] $end
$var reg 64 F" prefix_flat [63:0] $end
$var reg 1 6" ready $end
$var integer 32 G" j [31:0] $end
$upscope $end
$upscope $end
$scope module u_lif $end
$var wire 1 ' clk $end
$var wire 2 H" neuron_id [1:0] $end
$var wire 1 ) rst_n $end
$var wire 64 I" score_in_flat [63:0] $end
$var wire 1 A score_valid $end
$var wire 16 J" threshold [15:0] $end
$var reg 2 K" spike_neuron_id [1:0] $end
$var reg 4 L" spike_out [3:0] $end
$var reg 1 > spike_out_valid $end
$var integer 32 M" n [31:0] $end
$var integer 32 N" t [31:0] $end
$scope begin $unm_blk_48 $end
$var reg 1 O" any_spike $end
$upscope $end
$upscope $end
$scope module u_router $end
$var wire 1 ' clk $end
$var wire 1 ) rst_n $end
$var wire 4 P" spike_in [3:0] $end
$var wire 1 > spike_in_valid $end
$var wire 2 Q" spike_neuron_id [1:0] $end
$var reg 4 R" emit_mask [3:0] $end
$var reg 2 S" pending_neuron_id [1:0] $end
$var reg 4 T" pending_spikes [3:0] $end
$var reg 2 U" spike_out_neuron_id [1:0] $end
$var reg 2 V" spike_out_timestep [1:0] $end
$var reg 1 # spike_out_valid $end
$var integer 32 W" t [31:0] $end
$upscope $end
$scope module u_winmgr $end
$var wire 1 ' clk $end
$var wire 1 G fiber_valid $end
$var wire 1 ) rst_n $end
$var reg 3 X" fiber_cnt [2:0] $end
$var reg 3 Y" window_count [2:0] $end
$var reg 1 4 window_end $end
$var reg 1 3 window_start $end
$upscope $end
$upscope $end
$scope task run_test $end
$var reg 256 Z" name [255:0] $end
$var reg 16 [" pattern [15:0] $end
$var integer 32 \" iterations [31:0] $end
$upscope $end
$upscope $end
$enddefinitions $end
#0
$dumpvars
bx \"
bx ["
bx Z"
b0 Y"
b0 X"
bx W"
b0 V"
b0 U"
b0 T"
b0 S"
bx R"
b0 Q"
b0 P"
xO"
b100 N"
b100 M"
b0 L"
b0 K"
b10111011100 J"
b0 I"
b11 H"
b1000 G"
b0 F"
b0 E"
bx D"
b0 C"
bx0000000x B"
bx A"
b0 @"
bx ?"
bx >"
bx ="
b0 <"
b0 ;"
b0 :"
b0 9"
bx 8"
b0 7"
06"
bx0000000x 5"
bx 4"
b0 3"
b10000 2"
b0 1"
b0 0"
b0 /"
b0 ."
b1000 -"
b10000 ,"
b0 +"
bx *"
1)"
b0 ("
b100 '"
0&"
b0 %"
b0 $"
b0 #"
0""
0!"
bx ~
b0 }
b0 |
0{
b0 z
b100 y
0x
b0 w
b0 v
b0 u
0t
0s
bx r
b0 q
b0 p
0o
b0 n
b100 m
0l
b0 k
b0 j
b0 i
0h
0g
bx f
b0 e
b0 d
0c
b0 b
b100 a
0`
b0 _
b0 ^
b0 ]
0\
0[
bx Z
b0 Y
b0 X
0W
b0 V
0U
b0 T
b0 S
b0 R
b0 Q
b0 P
b0 O
b0 N
0M
bx L
b0 K
0J
b0 I
b0 H
0G
0F
0E
b0 D
bx C
bx B
0A
b0 @
b11 ?
0>
b0 =
b0 <
b0 ;
b0 :
b0 9
b0 8
b0 7
b0 6
b0 5
04
03
b0 2
b0 1
b10111011100 0
1/
b0 .
1-
b100 ,
b0 +
0*
0)
b10111011100 (
0'
b0 &
b0 %
b0 $
0#
b0 "
b0 !
$end
#5000
b100 N"
b100 M"
b1000 G"
b10000 2"
b100 '"
b100 y
b100 m
b100 a
1'
#10000
0'
#15000
b100 a
b100 m
b100 y
b100 '"
b10000 2"
b1000 G"
b100 N"
b100 M"
1'
#20000
0'
#25000
b100 N"
b100 M"
b1000 G"
b10000 2"
b100 '"
b100 y
b100 m
b100 a
1'
#30000
0'
#35000
b100 a
b100 m
b100 y
b100 '"
b10000 2"
b1000 G"
b100 N"
b100 M"
1'
#40000
0'
#45000
b1 &
b1 .
b1 Q
1)
1'
#50000
0'
#55000
b10 &
b10 .
b10 Q
1'
#60000
0'
#65000
b11 &
b11 .
b11 Q
1'
#70000
0'
#75000
b100 &
b100 .
b100 Q
b101 \"
b111100001111 ["
b1000100011001010110111001110011011001010010000001010000011000010111010001110100011001010111001001101110 Z"
1'
#80000
0'
#85000
b101 &
b101 .
b101 Q
b1 1"
b10000 2"
b111100001111 +
b111100001111 1
b111100001111 ."
1*
1'
#90000
0'
#95000
b10 1"
b110 &
b110 .
b110 Q
b10000 2"
1'
#100000
0'
#105000
b111 &
b111 .
b111 Q
b11 1"
b10000 2"
1'
#110000
0'
#115000
b111 #"
b111 u
b111 i
b111 ]
b111011101110111 }
b111011101110111 q
b111011101110111 e
b111011101110111 Y
b1111 3"
b1111 C"
b1111 |
b1111 p
b1111 d
b1111 X
b0 1"
1G
b11101110111011100000000000000000111011101110111 H
b11101110111011100000000000000000111011101110111 0"
b111100001111 I
b111100001111 /"
b1000 &
b1000 .
b1000 Q
b10000 2"
1'
#120000
0'
#125000
b100000000111000001100000010100000100000000110000001000000001 5"
b100000000111000001100000010100000100000000110000001000000001 B"
1\
b1 :
b1 O
b1 ("
b1001 &
b1001 .
b1001 Q
0)"
1J
b10000001010000001000000100000000100000001100000010000000100000001000000001000000100000000000000001111111110000000111111110 K
b10000001010000001000000100000000100000001100000010000000100000001000000001000000100000000000000001111111110000000111111110 +"
b11111111 L
b11111111 *"
b11111111 4"
b11111111 A"
b1 X"
13
0G
b1000 -"
0*
1'
#130000
0'
#135000
0\
b0 :
03
1)"
0J
b1 E"
b1111 D"
b1 @"
b0 ?"
b1111 8"
b1010 &
b1010 .
b1010 Q
b1 R
b100 a
1'
#140000
0'
#145000
b1011 &
b1011 .
b1011 Q
b1 ?"
b1 9"
b1 ;"
b10 E"
b101 G"
1'
#150000
0'
#155000
b11 E"
b1000000010000001000000001 7"
b1000000010000001000000001 F"
16"
b10 ?"
b10 9"
b10 ;"
b1100 &
b1100 .
b1100 Q
b1000 G"
1'
#160000
0'
#165000
b1101 &
b1101 .
b1101 Q
b11 ?"
b11 9"
b11 ;"
1'
#170000
0'
#175000
b100 ?"
b100 9"
b100 ;"
b1110 &
b1110 .
b1110 Q
1'
#180000
0'
#185000
b1111 &
b1111 .
b1111 Q
b101 ?"
1'
#190000
0'
#195000
b110 ?"
b10000 &
b10000 .
b10000 Q
1'
#200000
0'
#205000
b10001 &
b10001 .
b10001 Q
b111 ?"
1'
#210000
0'
#215000
b10 @"
b1000 ?"
b10010 &
b10010 .
b10010 Q
1'
#220000
0'
#225000
b10011 &
b10011 .
b10011 Q
b11 @"
1'
#230000
0'
#235000
1W
b1 <
b11 9"
b1 :"
b111111110 ~
b111111110 r
b111111110 f
b111111110 Z
b0 B
b0 >"
b0 C
b0 ="
1E
b10100 &
b10100 .
b10100 Q
1'
#240000
0'
#245000
b1 z
b1 n
b1 b
b1 V
b10101 &
b10101 .
b10101 Q
b10 9"
b10 :"
b111111111 ~
b111111111 r
b111111111 f
b111111111 Z
b1 B
b1 >"
b1 C
b1 ="
b1 D
b1 <"
1E
b111111110 ^
b100 a
1'
#250000
0'
#255000
b10 z
b10 n
b10 b
b10 V
b1111111101 ^
b1 9"
b11 :"
b1000000000 ~
b1000000000 r
b1000000000 f
b1000000000 Z
b10 B
b10 >"
b0 C
b0 ="
b10 D
b10 <"
1E
b10110 &
b10110 .
b10110 Q
b100 a
1'
#260000
0'
#265000
b11 z
b11 n
b11 b
b11 V
b10111 &
b10111 .
b10111 Q
b0 9"
b100 :"
b1000000001 ~
b1000000001 r
b1000000001 f
b1000000001 Z
b11 B
b11 >"
b11 D
b11 <"
1E
b10111111101 ^
b100 a
1'
#270000
0'
#275000
0W
b0 <
b11111111110 ^
b0 @"
1F
0E
b11000 &
b11000 .
b11000 Q
b100 a
1'
#280000
0'
#285000
b11001 &
b11001 .
b11001 Q
0F
1'
#290000
0'
#295000
b11010 &
b11010 .
b11010 Q
1'
#300000
0'
#305000
b11011 &
b11011 .
b11011 Q
1'
#310000
0'
#315000
b11100 &
b11100 .
b11100 Q
1'
#320000
0'
#325000
b11101 &
b11101 .
b11101 Q
1'
#330000
0'
#335000
b11110 &
b11110 .
b11110 Q
1'
#340000
0'
#345000
b11111 &
b11111 .
b11111 Q
1'
#350000
0'
#355000
b100000 &
b100000 .
b100000 Q
1'
#360000
0'
#365000
b100001 &
b100001 .
b100001 Q
1'
#370000
0'
#375000
b100010 &
b100010 .
b100010 Q
1'
#380000
0'
#385000
b100011 &
b100011 .
b100011 Q
1'
#390000
0'
#395000
b100100 &
b100100 .
b100100 Q
1'
#400000
0'
#405000
b100101 &
b100101 .
b100101 Q
1'
#410000
0'
#415000
b100110 &
b100110 .
b100110 Q
1'
#420000
0'
#425000
b100111 &
b100111 .
b100111 Q
1'
#430000
0'
#435000
b1 1"
b101000 &
b101000 .
b101000 Q
b10000 2"
1*
1'
#440000
0'
#445000
b101001 &
b101001 .
b101001 Q
b10 1"
b10000 2"
1'
#450000
0'
#455000
b11 1"
b101010 &
b101010 .
b101010 Q
b10000 2"
1'
#460000
0'
#465000
b101011 &
b101011 .
b101011 Q
b0 1"
1G
b111100001111 I
b111100001111 /"
b10000 2"
1'
#470000
0'
#475000
b10000000011000000110000001000000010000000010000000100000000 5"
b10000000011000000110000001000000010000000010000000100000000 B"
0G
b10 X"
0)"
1J
b1000001011 ~
b1000001011 r
b1000001011 f
b1000001011 Z
b10000011110000001000001110000000100000110100000010000011000000001000001011000000100000101000000010000010010000001000001000 K
b10000011110000001000001110000000100000110100000010000011000000001000001011000000100000101000000010000010010000001000001000 +"
b10101010 L
b10101010 *"
b10101010 4"
b10101010 A"
b101100 &
b101100 .
b101100 Q
b10 O
b10 ("
b1000 -"
0*
1'
#480000
0'
#485000
b101101 &
b101101 .
b101101 Q
b1 @"
b0 :"
b0 ;"
b0 ?"
b1010 8"
06"
b1 E"
1)"
0J
1'
#490000
0'
#495000
b10 E"
b1 ?"
b101110 &
b101110 .
b101110 Q
b101 G"
1'
#500000
0'
#505000
b101111 &
b101111 .
b101111 Q
b10 ?"
b1 9"
b1 ;"
b11 E"
b100000010000000110000001000000001 7"
b100000010000000110000001000000001 F"
16"
b1000 G"
1'
#510000
0'
#515000
b11 ?"
b110000 &
b110000 .
b110000 Q
1'
#520000
0'
#525000
b110001 &
b110001 .
b110001 Q
b100 ?"
b10 9"
b10 ;"
1'
#530000
0'
#535000
b101 ?"
b110010 &
b110010 .
b110010 Q
1'
#540000
0'
#545000
b110011 &
b110011 .
b110011 Q
b110 ?"
1'
#550000
0'
#555000
b111 ?"
b110100 &
b110100 .
b110100 Q
1'
#560000
0'
#565000
b110101 &
b110101 .
b110101 Q
b10 @"
b1000 ?"
1'
#570000
0'
#575000
b11 @"
b110110 &
b110110 .
b110110 Q
1'
#580000
0'
#585000
1W
b1 z
b1 n
b1 b
b1 V
b1 <
b110111 &
b110111 .
b110111 Q
b1 9"
b1 :"
b1000001000 ~
b1000001000 r
b1000001000 f
b1000001000 Z
b0 B
b0 >"
b1 C
b1 ="
b1 D
b1 <"
1E
1'
#590000
0'
#595000
b11 z
b11 n
b11 b
b11 V
b101000000110 ^
b0 9"
b10 :"
b1000001001 ~
b1000001001 r
b1000001001 f
b1000001001 Z
b1 B
b1 >"
b11 D
b11 <"
1E
b111000 &
b111000 .
b111000 Q
b100 a
1'
#600000
0'
#605000
0W
b0 <
b111001 &
b111001 .
b111001 Q
b0 @"
1F
0E
b110000001111 ^
b100 a
1'
#610000
0'
#615000
0F
b111010 &
b111010 .
b111010 Q
1'
#620000
0'
#625000
b111011 &
b111011 .
b111011 Q
1'
#630000
0'
#635000
b111100 &
b111100 .
b111100 Q
1'
#640000
0'
#645000
b111101 &
b111101 .
b111101 Q
1'
#650000
0'
#655000
b111110 &
b111110 .
b111110 Q
1'
#660000
0'
#665000
b111111 &
b111111 .
b111111 Q
1'
#670000
0'
#675000
b1000000 &
b1000000 .
b1000000 Q
1'
#680000
0'
#685000
b1000001 &
b1000001 .
b1000001 Q
1'
#690000
0'
#695000
b1000010 &
b1000010 .
b1000010 Q
1'
#700000
0'
#705000
b1000011 &
b1000011 .
b1000011 Q
1'
#710000
0'
#715000
b1000100 &
b1000100 .
b1000100 Q
1'
#720000
0'
#725000
b1000101 &
b1000101 .
b1000101 Q
1'
#730000
0'
#735000
b1000110 &
b1000110 .
b1000110 Q
1'
#740000
0'
#745000
b1000111 &
b1000111 .
b1000111 Q
1'
#750000
0'
#755000
b1001000 &
b1001000 .
b1001000 Q
1'
#760000
0'
#765000
b1001001 &
b1001001 .
b1001001 Q
1'
#770000
0'
#775000
b1001010 &
b1001010 .
b1001010 Q
1'
#780000
0'
#785000
b1001011 &
b1001011 .
b1001011 Q
b1 1"
b10000 2"
1*
1'
#790000
0'
#795000
b10 1"
b1001100 &
b1001100 .
b1001100 Q
b10000 2"
1'
#800000
0'
#805000
b1001101 &
b1001101 .
b1001101 Q
b11 1"
b10000 2"
1'
#810000
0'
#815000
b0 1"
1G
b111100001111 I
b111100001111 /"
b1001110 &
b1001110 .
b1001110 Q
b10000 2"
1'
#820000
0'
#825000
b1000000001000000010000000100000001000000000000000000000000 5"
b1000000001000000010000000100000001000000000000000000000000 B"
b11 O
b11 ("
b1001111 &
b1001111 .
b1001111 Q
0)"
1J
b1000010011 ~
b1000010011 r
b1000010011 f
b1000010011 Z
b10000110010000001000011000000000100001011100000010000101100000001000010101000000100001010000000010000100110000001000010010 K
b10000110010000001000011000000000100001011100000010000101100000001000010101000000100001010000000010000100110000001000010010 +"
b10001000 L
b10001000 *"
b10001000 4"
b10001000 A"
b11 X"
0G
b1000 -"
0*
1'
#830000
0'
#835000
1)"
0J
06"
b1 E"
b1 @"
b0 :"
b0 ;"
b0 ?"
b1000 8"
b1010000 &
b1010000 .
b1010000 Q
1'
#840000
0'
#845000
b1010001 &
b1010001 .
b1010001 Q
b1 ?"
b10 E"
b101 G"
1'
#850000
0'
#855000
b11 E"
b10000001000000100000000110000001000000001 7"
b10000001000000100000000110000001000000001 F"
16"
b10 ?"
b1010010 &
b1010010 .
b1010010 Q
b1000 G"
1'
#860000
0'
#865000
b1010011 &
b1010011 .
b1010011 Q
b11 ?"
1'
#870000
0'
#875000
b100 ?"
b1 9"
b1 ;"
b1010100 &
b1010100 .
b1010100 Q
1'
#880000
0'
#885000
b1010101 &
b1010101 .
b1010101 Q
b101 ?"
1'
#890000
0'
#895000
b110 ?"
b1010110 &
b1010110 .
b1010110 Q
1'
#900000
0'
#905000
b1010111 &
b1010111 .
b1010111 Q
b111 ?"
1'
#910000
0'
#915000
b10 @"
b1000 ?"
b1011000 &
b1011000 .
b1011000 Q
1'
#920000
0'
#925000
b1011001 &
b1011001 .
b1011001 Q
b11 @"
1'
#930000
0'
#935000
1W
b1 <
b0 9"
b1 :"
b1000010010 ~
b1000010010 r
b1000010010 f
b1000010010 Z
b0 B
b0 >"
b11 C
b11 ="
1E
b1011010 &
b1011010 .
b1011010 Q
1'
#940000
0'
#945000
0W
b0 <
b1011011 &
b1011011 .
b1011011 Q
b0 @"
1F
0E
b111000100001 ^
b100 a
1'
#950000
0'
#955000
0F
b1011100 &
b1011100 .
b1011100 Q
1'
#960000
0'
#965000
b1011101 &
b1011101 .
b1011101 Q
1'
#970000
0'
#975000
b1011110 &
b1011110 .
b1011110 Q
1'
#980000
0'
#985000
b1011111 &
b1011111 .
b1011111 Q
1'
#990000
0'
#995000
b1100000 &
b1100000 .
b1100000 Q
1'
#1000000
0'
#1005000
b1100001 &
b1100001 .
b1100001 Q
1'
#1010000
0'
#1015000
b1100010 &
b1100010 .
b1100010 Q
1'
#1020000
0'
#1025000
b1100011 &
b1100011 .
b1100011 Q
1'
#1030000
0'
#1035000
b1100100 &
b1100100 .
b1100100 Q
1'
#1040000
0'
#1045000
b1100101 &
b1100101 .
b1100101 Q
1'
#1050000
0'
#1055000
b1100110 &
b1100110 .
b1100110 Q
1'
#1060000
0'
#1065000
b1100111 &
b1100111 .
b1100111 Q
1'
#1070000
0'
#1075000
b1101000 &
b1101000 .
b1101000 Q
1'
#1080000
0'
#1085000
b1101001 &
b1101001 .
b1101001 Q
1'
#1090000
0'
#1095000
b1101010 &
b1101010 .
b1101010 Q
1'
#1100000
0'
#1105000
b1101011 &
b1101011 .
b1101011 Q
1'
#1110000
0'
#1115000
b1101100 &
b1101100 .
b1101100 Q
1'
#1120000
0'
#1125000
b1101101 &
b1101101 .
b1101101 Q
1'
#1130000
0'
#1135000
b1 1"
b1101110 &
b1101110 .
b1101110 Q
b10000 2"
1*
1'
#1140000
0'
#1145000
b1101111 &
b1101111 .
b1101111 Q
b10 1"
b10000 2"
1'
#1150000
0'
#1155000
b11 1"
b1110000 &
b1110000 .
b1110000 Q
b10000 2"
1'
#1160000
0'
#1165000
b1110001 &
b1110001 .
b1110001 Q
b0 1"
1G
b111100001111 I
b111100001111 /"
b10000 2"
1'
#1170000
0'
#1175000
b10000000011000000100000000100000000000000000000000000000000 5"
b10000000011000000100000000100000000000000000000000000000000 B"
0G
b1 !
b1 5
b1 6
b1 Y"
14
b0 X"
0)"
1J
b1000011100 ~
b1000011100 r
b1000011100 f
b1000011100 Z
b10001000110000001000100010000000100010000100000010001000000000001000011111000000100001111000000010000111010000001000011100 K
b10001000110000001000100010000000100010000100000010001000000000001000011111000000100001111000000010000111010000001000011100 +"
b11110000 L
b11110000 *"
b11110000 4"
b11110000 A"
b1110010 &
b1110010 .
b1110010 Q
b100 O
b100 ("
b1000 -"
0*
1'
#1180000
0'
#1185000
1U
b1110011 &
b1110011 .
b1110011 Q
b1 @"
b0 :"
b0 ;"
b0 ?"
b0 8"
06"
b1 E"
1)"
0J
04
1'
#1190000
0'
#1195000
b10 E"
b1 ?"
b1110100 &
b1110100 .
b1110100 Q
b101 G"
1'
#1200000
0'
#1205000
b1110101 &
b1110101 .
b1110101 Q
b10 ?"
b11 E"
b1000000100000010000000100000000110000001000000001 7"
b1000000100000010000000100000000110000001000000001 F"
16"
b1000 G"
1'
#1210000
0'
#1215000
b11 ?"
b1110110 &
b1110110 .
b1110110 Q
1'
#1220000
0'
#1225000
b1110111 &
b1110111 .
b1110111 Q
b100 ?"
1'
#1230000
0'
#1235000
b101 ?"
b1111000 &
b1111000 .
b1111000 Q
1'
#1240000
0'
#1245000
b1111001 &
b1111001 .
b1111001 Q
b110 ?"
1'
#1250000
0'
#1255000
b111 ?"
b1111010 &
b1111010 .
b1111010 Q
1'
#1260000
0'
#1265000
b1111011 &
b1111011 .
b1111011 Q
b10 @"
b1000 ?"
1'
#1270000
0'
#1275000
b11 @"
b1111100 &
b1111100 .
b1111100 Q
1'
#1280000
0'
#1285000
1[
b1 ;
1M
b1111101 &
b1111101 .
b1111101 Q
b0 @"
1F
1'
#1290000
0'
#1295000
0[
b11100010000100001110001000010000111000100001 I"
b0 ?
b0 H"
b0 ;
b100 N"
0M
1A
b1 7
1`
b11100010000100001110001000010000111000100001 _
0F
b1111110 &
b1111110 .
b1111110 Q
0U
b100 a
1'
#1300000
0'
#1305000
b0 I"
b11 ?
b11 H"
1>
b111 =
b111 L"
b111 P"
b1111111 &
b1111111 .
b1111111 Q
0A
b0 7
0`
b100 N"
1O"
1'
#1310000
0'
#1315000
1#
b110 T"
b10000000 &
b10000000 .
b10000000 Q
0>
b0 =
b0 L"
b0 P"
b100 W"
b1 R"
1'
#1320000
0'
#1325000
b1 "
b1 2
b1 T
b10000001 &
b10000001 .
b10000001 Q
b100 T"
b1 $
b1 8
b1 V"
1#
b100 W"
b10 R"
1'
#1330000
0'
#1335000
b0 T"
b10 $
b10 8
b10 V"
1#
b10 "
b10 2
b10 T
b10000010 &
b10000010 .
b10000010 Q
b100 W"
b100 R"
1'
#1340000
0'
#1345000
b11 "
b11 2
b11 T
b10000011 &
b10000011 .
b10000011 Q
0#
1'
#1350000
0'
#1355000
b10000100 &
b10000100 .
b10000100 Q
1'
#1360000
0'
#1365000
b10000101 &
b10000101 .
b10000101 Q
1'
#1370000
0'
#1375000
b10000110 &
b10000110 .
b10000110 Q
1'
#1380000
0'
#1385000
b10000111 &
b10000111 .
b10000111 Q
1'
#1390000
0'
#1395000
b10001000 &
b10001000 .
b10001000 Q
1'
#1400000
0'
#1405000
b10001001 &
b10001001 .
b10001001 Q
1'
#1410000
0'
#1415000
b10001010 &
b10001010 .
b10001010 Q
1'
#1420000
0'
#1425000
b10001011 &
b10001011 .
b10001011 Q
1'
#1430000
0'
#1435000
b10001100 &
b10001100 .
b10001100 Q
1'
#1440000
0'
#1445000
b10001101 &
b10001101 .
b10001101 Q
1'
#1450000
0'
#1455000
b10001110 &
b10001110 .
b10001110 Q
1'
#1460000
0'
#1465000
b10001111 &
b10001111 .
b10001111 Q
1'
#1470000
0'
#1475000
b10010000 &
b10010000 .
b10010000 Q
1'
#1480000
0'
#1485000
b10010001 &
b10010001 .
b10010001 Q
b1 1"
b10000 2"
1*
1'
#1490000
0'
#1495000
b10 1"
b10010010 &
b10010010 .
b10010010 Q
b10000 2"
1'
#1500000
0'
#1505000
b10010011 &
b10010011 .
b10010011 Q
b11 1"
b10000 2"
1'
#1510000
0'
#1515000
b0 1"
1G
b111100001111 I
b111100001111 /"
b10010100 &
b10010100 .
b10010100 Q
b10000 2"
1'
#1520000
0'
#1525000
b100000000111000001100000010100000100000000110000001000000001 5"
b100000000111000001100000010100000100000000110000001000000001 B"
1\
b1 :
b101 O
b101 ("
b10010101 &
b10010101 .
b10010101 Q
0)"
1J
b1000100110 ~
b1000100110 r
b1000100110 f
b1000100110 Z
b10001011010000001000101100000000100010101100000010001010100000001000101001000000100010100000000010001001110000001000100110 K
b10001011010000001000101100000000100010101100000010001010100000001000101001000000100010100000000010001001110000001000100110 +"
b11111111 L
b11111111 *"
b11111111 4"
b11111111 A"
b1 X"
13
0G
b1000 -"
0*
1'
#1530000
0'
